﻿1>------ Build started: Project: Exercise06, Configuration: Debug Any CPU ------
1>  Exercise06 -> C:\Users\9928527\Documents\Visual Studio 2015\Projects\Exercise06\Exercise06\bin\Debug\Exercise06.exe
========== Build: 1 succeeded, 0 failed, 0 up-to-date, 0 skipped ==========
